<?xml version="1.0" encoding="UTF-8" standalone="no"?>
<!-- Created with Inkscape (http://www.inkscape.org/) -->

<svg
   xmlns:dc="http://purl.org/dc/elements/1.1/"
   xmlns:cc="http://creativecommons.org/ns#"
   xmlns:rdf="http://www.w3.org/1999/02/22-rdf-syntax-ns#"
   xmlns:svg="http://www.w3.org/2000/svg"
   xmlns="http://www.w3.org/2000/svg"
   xmlns:sodipodi="http://sodipodi.sourceforge.net/DTD/sodipodi-0.dtd"
   xmlns:inkscape="http://www.inkscape.org/namespaces/inkscape"
   width="1000"
   height="50"
   id="svg3351"
   version="1.1"
   inkscape:version="0.48.5 r10040"
   sodipodi:docname="custom-icons.svg">
  <defs
     id="defs3353" />
  <sodipodi:namedview
     id="base"
     pagecolor="#ffffff"
     bordercolor="#666666"
     borderopacity="1.0"
     inkscape:pageopacity="0.0"
     inkscape:pageshadow="2"
     inkscape:zoom="2"
     inkscape:cx="108.08521"
     inkscape:cy="23.489309"
     inkscape:document-units="px"
     inkscape:current-layer="layer1"
     showgrid="false"
     inkscape:showpageshadow="false"
     showguides="true"
     inkscape:guide-bbox="true"
     inkscape:window-width="1366"
     inkscape:window-height="716"
     inkscape:window-x="-8"
     inkscape:window-y="-8"
     inkscape:window-maximized="1">
    <sodipodi:guide
       orientation="1,0"
       position="0,74.285714"
       id="guide3361" />
    <sodipodi:guide
       orientation="1,0"
       position="50,28.571429"
       id="guide3363" />
    <sodipodi:guide
       orientation="1,0"
       position="100,34.285714"
       id="guide3365" />
    <sodipodi:guide
       orientation="1,0"
       position="150,18.571429"
       id="guide3367" />
    <sodipodi:guide
       orientation="1,0"
       position="200,26.428571"
       id="guide3369" />
    <sodipodi:guide
       orientation="1,0"
       position="250,17.142857"
       id="guide3371" />
    <sodipodi:guide
       orientation="1,0"
       position="300,-46.428571"
       id="guide3373" />
    <sodipodi:guide
       orientation="1,0"
       position="350,-16.428571"
       id="guide3375" />
    <sodipodi:guide
       orientation="1,0"
       position="400,-23.571429"
       id="guide3377" />
    <sodipodi:guide
       orientation="1,0"
       position="500,-26.428571"
       id="guide3379" />
    <sodipodi:guide
       orientation="1,0"
       position="450,-47.857143"
       id="guide3381" />
    <sodipodi:guide
       orientation="1,0"
       position="550,27.142857"
       id="guide3383" />
    <sodipodi:guide
       orientation="1,0"
       position="600,-18.571429"
       id="guide3385" />
    <sodipodi:guide
       orientation="1,0"
       position="700,11.428571"
       id="guide3387" />
    <sodipodi:guide
       orientation="1,0"
       position="650,-46.428571"
       id="guide3389" />
    <sodipodi:guide
       orientation="1,0"
       position="750,-78.571429"
       id="guide3391" />
    <sodipodi:guide
       orientation="1,0"
       position="800,36.428571"
       id="guide3395" />
    <sodipodi:guide
       orientation="1,0"
       position="850,10"
       id="guide3397" />
    <sodipodi:guide
       orientation="1,0"
       position="900,22.142857"
       id="guide3399" />
    <sodipodi:guide
       orientation="1,0"
       position="1000,17.857143"
       id="guide3401" />
    <sodipodi:guide
       orientation="1,0"
       position="950,14.285714"
       id="guide3403" />
  </sodipodi:namedview>
  <metadata
     id="metadata3356">
    <rdf:RDF>
      <cc:Work
         rdf:about="">
        <dc:format>image/svg+xml</dc:format>
        <dc:type
           rdf:resource="http://purl.org/dc/dcmitype/StillImage" />
        <dc:title />
      </cc:Work>
    </rdf:RDF>
  </metadata>
  <g
     inkscape:label="Layer 1"
     inkscape:groupmode="layer"
     id="layer1"
     transform="translate(0,-1002.3621)">
    <path
       style="fill:#ffffff;fill-opacity:1;stroke:none;display:inline"
       d="m 27.853468,1013.4103 c 0,3.1999 -2.173086,8.4177 -5.332894,9.0482 -1.53631,1.5362 -3.631417,3.5205 -4.733812,5.3331 l 0.05954,9.5275 c 3.984587,1.7076 11.741664,2.3849 16.53841,1.5579 1.424517,-0.8139 1.112432,-1.7621 1.557988,-3.2357 1.413989,-1.1784 0.801155,-2.2932 0.599247,-4.1945 1.435839,-1.723 0.914564,-2.4635 0.239602,-4.1346 0.609444,-1.0666 0.902758,-2.7789 -0.299623,-3.3557 -1.704078,0 -7.127253,0.044 -6.890888,-1.6178 1.513983,-2.1197 3.030389,-9.1993 -1.737727,-8.9284 z m -14.6808,13.3026 c -0.732718,0 -1.318219,0.5856 -1.318219,1.3183 l 0,8.6287 c 0,0.7328 0.585501,1.3183 1.318219,1.3183 l 1.857612,0 c 0.732718,0 1.31822,-0.5855 1.31822,-1.3183 l 0,-8.6287 c 0,-0.7327 -0.585502,-1.3183 -1.31822,-1.3183 l -1.857612,0 z"
       id="path5682-1-4"
       inkscape:connector-curvature="0" />
    <g
       style="fill:#ffffff;display:inline"
       id="g3285"
       transform="matrix(1.0701625,0,0,1.0701625,-164.58883,621.55518)">
      <path
         inkscape:connector-curvature="0"
         id="path3316-0-1"
         d="m 209.37704,382.68723 4.31814,2.33976 -0.89758,-4.82857 3.55962,-3.38375 -4.86961,-0.63847 -2.11816,-4.43104 -2.11201,4.43399 -4.86871,0.64521 3.56431,3.37881 -0.89086,4.82982 z"
         inkscape:transform-center-y="-1.820925"
         inkscape:transform-center-x="0.81791478"
         style="color:#000000;fill:#ffffff;fill-opacity:1;fill-rule:nonzero;stroke:none;stroke-width:0.45800000000000002;marker:none;visibility:visible;display:inline;overflow:visible;enable-background:accumulate" />
      <path
         inkscape:connector-curvature="0"
         id="path3316-0-1-7"
         d="m 238.79315,382.68636 4.31813,2.33975 -0.89757,-4.82857 3.55962,-3.38374 -4.86961,-0.63847 -2.11816,-4.43105 -2.11201,4.43399 -4.86871,0.64521 3.56431,3.37882 -0.89086,4.82981 z"
         inkscape:transform-center-y="-1.8209291"
         inkscape:transform-center-x="0.81791406"
         style="color:#000000;fill:#ffffff;fill-opacity:1;fill-rule:nonzero;stroke:none;stroke-width:0.45800000000000002;marker:none;visibility:visible;display:inline;overflow:visible;enable-background:accumulate" />
      <path
         inkscape:connector-curvature="0"
         id="path3316-0-1-7-4"
         d="m 223.98309,382.61585 4.31813,2.33976 -0.89757,-4.82857 3.55962,-3.38375 -4.86961,-0.63846 -2.11817,-4.43105 -2.112,4.43399 -4.86872,0.64521 3.56431,3.37881 -0.89085,4.82982 z"
         inkscape:transform-center-y="-1.8209268"
         inkscape:transform-center-x="0.81791417"
         style="color:#000000;fill:#ffffff;fill-opacity:1;fill-rule:nonzero;stroke:none;stroke-width:0.45800000000000002;marker:none;visibility:visible;display:inline;overflow:visible;enable-background:accumulate" />
    </g>
    <path
       style="color:#000000;fill:#ffffff;fill-opacity:1;fill-rule:nonzero;stroke:none;stroke-width:5.59999990000000030;marker:none;visibility:visible;display:inline;overflow:visible;enable-background:accumulate"
       d="m 125.21552,1010.1303 -1.32438,1.2565 -1.51116,-1.0358 -0.95084,1.545 -1.71492,-0.6282 -0.56031,1.749 -1.81679,-0.1869 -0.10186,1.8168 -1.79981,0.2717 0.35656,1.7998 -1.68095,0.7131 0.79803,1.6301 -1.46023,1.1207 1.17157,1.3922 -1.12062,1.4262 1.4772,1.0697 -0.73013,1.6641 1.69794,0.6622 -0.30563,1.7998 1.81678,0.2207 0.15282,1.8167 1.81679,-0.2376 0.61126,1.715 1.68095,-0.6793 1.01877,1.5112 1.46021,-1.0867 1.37532,1.2224 1.13762,-1.4261 1.63002,0.8489 0.76406,-1.664 1.78284,0.4246 0.3226,-1.7998 1.81678,-0.051 -0.11885,-1.8168 1.74888,-0.4924 -0.57731,-1.7319 1.57909,-0.9169 -0.98481,-1.5281 1.30741,-1.2904 -1.34137,-1.2396 0.93386,-1.562 -1.61303,-0.866 0.52636,-1.7488 -1.76585,-0.4415 0.0679,-1.8168 -1.81679,0.017 -0.39052,-1.7998 -1.76585,0.4753 -0.815,-1.6299 -1.59606,0.8829 -1.18855,-1.3754 z m -6.12952,21.6826 -1.03574,0.1357 0,12.5478 6.58798,-4.4656 6.43516,4.4656 0,-11.7836 -1.78284,-0.4245 -0.815,1.7488 -1.69794,-0.8829 -1.2225,1.4943 -1.42627,-1.2905 -1.5621,1.1545 -1.06969,-1.613 -1.78284,0.7301 -0.62822,-1.8167 z"
       id="rect8651"
       inkscape:connector-curvature="0" />
  </g>
</svg>
